%YAML 1.1
%TAG !u! tag:unity3d.com,2011:
--- !u!114 &11400000
MonoBehaviour:
  m_ObjectHideFlags: 0
  m_CorrespondingSourceObject: {fileID: 0}
  m_PrefabInstance: {fileID: 0}
  m_PrefabAsset: {fileID: 0}
  m_GameObject: {fileID: 0}
  m_Enabled: 1
  m_EditorHideFlags: 0
  m_Script: {fileID: 1581226164, guid: 1eb6477d79ea83b4d81fd3ef090262dd, type: 3}
  m_Name: "\u5D29\u574F\u5F13\u7BAD\u624B.MMD4Mecanim"
  m_EditorClassIdentifier: 
  fbxAsset: {fileID: 0}
  fbxAssetPath: 
  editorViewPage: 0
